{
  "configVersion": 2,
  "packages": [
    {
      "name": "clock",
      "rootUri": "file:///C:/Users/User/AppData/Local/Pub/Cache/hosted/pub.dartlang.org/clock-1.1.0",
      "packageUri": "lib/",
      "languageVersion": "2.12"
    },
    {
      "name": "intl",
      "rootUri": "file:///C:/Users/User/AppData/Local/Pub/Cache/hosted/pub.dartlang.org/intl-0.17.0",
      "packageUri": "lib/",
      "languageVersion": "2.12"
    },
    {
      "name": "path",
      "rootUri": "file:///C:/Users/User/AppData/Local/Pub/Cache/hosted/pub.dartlang.org/path-1.8.0",
      "packageUri": "lib/",
      "languageVersion": "2.12"
    },
    {
      "name": "validate",
      "rootUri": "file:///C:/Users/User/AppData/Local/Pub/Cache/hosted/pub.dartlang.org/validate-1.7.0",
      "packageUri": "lib/",
      "languageVersion": "2.0"
    },
    {
      "name": "latlong",
      "rootUri": "../",
      "packageUri": "lib/",
      "languageVersion": "2.0"
    }
  ],
  "generated": "2021-11-21T13:53:27.652205Z",
  "generator": "pub",
  "generatorVersion": "2.12.0"
}
